info face="Digital-7" size=52 bold=0 italic=0 charset="" unicode=0 stretchH=100 smooth=1 aa=1 padding=0,0,0,0 spacing=0,0
common lineHeight=52 base=43 scaleW=128 scaleH=128 pages=1 packed=0
page id=0 file="score-dark-hd.png"
chars count=12
char id=32 x=8 y=114 width=0 height=0 xoffset=0 yoffset=37 xadvance=14 page=0 chnl=0
char id=49 x=120 y=0 width=8 height=38 xoffset=3 yoffset=3 xadvance=9 page=0 chnl=0
char id=50 x=24 y=76 width=24 height=38 xoffset=3 yoffset=3 xadvance=25 page=0 chnl=0
char id=51 x=24 y=38 width=24 height=38 xoffset=3 yoffset=3 xadvance=25 page=0 chnl=0
char id=52 x=96 y=0 width=24 height=38 xoffset=3 yoffset=3 xadvance=25 page=0 chnl=0
char id=53 x=72 y=0 width=24 height=38 xoffset=3 yoffset=3 xadvance=25 page=0 chnl=0
char id=54 x=48 y=0 width=24 height=38 xoffset=3 yoffset=3 xadvance=25 page=0 chnl=0
char id=55 x=24 y=0 width=24 height=38 xoffset=3 yoffset=3 xadvance=25 page=0 chnl=0
char id=56 x=0 y=76 width=24 height=38 xoffset=3 yoffset=3 xadvance=25 page=0 chnl=0
char id=57 x=0 y=38 width=24 height=38 xoffset=3 yoffset=3 xadvance=25 page=0 chnl=0
char id=48 x=0 y=0 width=24 height=38 xoffset=3 yoffset=3 xadvance=25 page=0 chnl=0
char id=44 x=0 y=114 width=8 height=14 xoffset=3 yoffset=32 xadvance=9 page=0 chnl=0
