info face="Digital-7" size=52 bold=0 italic=0 charset="" unicode=0 stretchH=100 smooth=1 aa=1 padding=0,0,0,0 spacing=0,0
common lineHeight=58 base=53 scaleW=256 scaleH=256 pages=1 packed=0
page id=0 file="score-light-hd.png"
chars count=18
char id=32 x=0 y=240 width=0 height=0 xoffset=0 yoffset=38 xadvance=14 page=0 chnl=0
char id=44 x=32 y=224 width=16 height=22 xoffset=3 yoffset=33 xadvance=9 page=0 chnl=0
char id=48 x=224 y=0 width=32 height=48 xoffset=3 yoffset=2 xadvance=25 page=0 chnl=0
char id=49 x=32 y=144 width=16 height=48 xoffset=3 yoffset=2 xadvance=9 page=0 chnl=0
char id=50 x=192 y=0 width=32 height=48 xoffset=3 yoffset=2 xadvance=25 page=0 chnl=0
char id=51 x=160 y=0 width=32 height=48 xoffset=3 yoffset=2 xadvance=25 page=0 chnl=0
char id=52 x=128 y=0 width=32 height=48 xoffset=3 yoffset=2 xadvance=25 page=0 chnl=0
char id=53 x=96 y=0 width=32 height=48 xoffset=3 yoffset=2 xadvance=25 page=0 chnl=0
char id=54 x=64 y=0 width=32 height=48 xoffset=3 yoffset=2 xadvance=25 page=0 chnl=0
char id=55 x=32 y=0 width=32 height=48 xoffset=3 yoffset=2 xadvance=25 page=0 chnl=0
char id=56 x=0 y=192 width=32 height=48 xoffset=3 yoffset=2 xadvance=25 page=0 chnl=0
char id=57 x=0 y=144 width=32 height=48 xoffset=3 yoffset=2 xadvance=25 page=0 chnl=0
char id=83 x=0 y=96 width=32 height=48 xoffset=3 yoffset=2 xadvance=25 page=0 chnl=0
char id=99 x=32 y=96 width=30 height=48 xoffset=3 yoffset=2 xadvance=23 page=0 chnl=0
char id=111 x=0 y=48 width=32 height=48 xoffset=3 yoffset=2 xadvance=25 page=0 chnl=0
char id=114 x=0 y=0 width=32 height=48 xoffset=3 yoffset=2 xadvance=25 page=0 chnl=0
char id=101 x=32 y=48 width=30 height=48 xoffset=3 yoffset=2 xadvance=23 page=0 chnl=0
char id=58 x=32 y=192 width=16 height=32 xoffset=3 yoffset=10 xadvance=9 page=0 chnl=0
